%YAML 1.1
%TAG !u! tag:unity3d.com,2011:
--- !u!114 &11400000
MonoBehaviour:
  m_ObjectHideFlags: 0
  m_CorrespondingSourceObject: {fileID: 0}
  m_PrefabInstance: {fileID: 0}
  m_PrefabAsset: {fileID: 0}
  m_GameObject: {fileID: 0}
  m_Enabled: 1
  m_EditorHideFlags: 0
  m_Script: {fileID: 11500000, guid: 4eb370e56923dbb48ab252103ce3ff91, type: 3}
  m_Name: UpperNone
  m_EditorClassIdentifier: 
  outfitName: Upper None
  outfitType: 2
  outfitModel: {fileID: 0}
  hideParts: 
  ColorOptions: []
  tuckable: 0
  supportTuck: 0
  tag: 
