%YAML 1.1
%TAG !u! tag:unity3d.com,2011:
--- !u!114 &11400000
MonoBehaviour:
  m_ObjectHideFlags: 0
  m_CorrespondingSourceObject: {fileID: 0}
  m_PrefabInstance: {fileID: 0}
  m_PrefabAsset: {fileID: 0}
  m_GameObject: {fileID: 0}
  m_Enabled: 1
  m_EditorHideFlags: 0
  m_Script: {fileID: 11500000, guid: 4eb370e56923dbb48ab252103ce3ff91, type: 3}
  m_Name: LongSkirt
  m_EditorClassIdentifier: 
  outfitName: LongSkirt
  outfitType: 3
  outfitModel: {fileID: 7373560673544626623, guid: 396bfcc958559004295ee82ed4385bda, type: 3}
  hideParts: 0f0000000000000014000000
  requiredParts: 
  ColorOptions:
  - {r: 0.41509432, g: 0.34737083, b: 0.3191527, a: 1}
  - {r: 0.8962264, g: 0.8962264, b: 0.8962264, a: 1}
  - {r: 0.2264151, g: 0.2264151, b: 0.2264151, a: 1}
  - {r: 0.9245283, g: 0.6497864, b: 0.69973946, a: 1}
  - {r: 0.5608757, g: 0.7863242, b: 0.8679245, a: 1}
  - {r: 0.4528302, g: 0.20291919, b: 0.258455, a: 1}
  tuckable: 0
  supportTuck: 1
  tag: 
  offset: {x: 0, y: 0, z: 0}
