%YAML 1.1
%TAG !u! tag:unity3d.com,2011:
--- !u!114 &11400000
MonoBehaviour:
  m_ObjectHideFlags: 0
  m_CorrespondingSourceObject: {fileID: 0}
  m_PrefabInstance: {fileID: 0}
  m_PrefabAsset: {fileID: 0}
  m_GameObject: {fileID: 0}
  m_Enabled: 1
  m_EditorHideFlags: 0
  m_Script: {fileID: 11500000, guid: 4f9398746c665b5478efc499ad2743bf, type: 3}
  m_Name: SpriteManager
  m_EditorClassIdentifier: 
  atlases:
  - {fileID: 100100200, guid: 3eb000c6db64a964e80be9794f7d71ae, type: 3}
  - {fileID: 100100200, guid: 6b61eebd5bc387e438c54d617e90afe3, type: 3}
