%YAML 1.1
%TAG !u! tag:unity3d.com,2011:
--- !u!114 &11400000
MonoBehaviour:
  m_ObjectHideFlags: 0
  m_CorrespondingSourceObject: {fileID: 0}
  m_PrefabInstance: {fileID: 0}
  m_PrefabAsset: {fileID: 0}
  m_GameObject: {fileID: 0}
  m_Enabled: 1
  m_EditorHideFlags: 0
  m_Script: {fileID: 11500000, guid: 4eb370e56923dbb48ab252103ce3ff91, type: 3}
  m_Name: Bracelet1.L
  m_EditorClassIdentifier: 
  outfitName: Bracelet1
  outfitType: 5
  outfitModel: {fileID: 1214493724533083234, guid: a6f34949c54310a478a8c43d3f0fcd13, type: 3}
  hideParts: 
  requiredParts: 0d0000000c000000
  ColorOptions: []
  tuckable: 0
  supportTuck: 0
  tag: hand.L
  bone: hand.L
  offset: {x: 0, y: 0, z: 0}
