%YAML 1.1
%TAG !u! tag:unity3d.com,2011:
--- !u!114 &11400000
MonoBehaviour:
  m_ObjectHideFlags: 0
  m_CorrespondingSourceObject: {fileID: 0}
  m_PrefabInstance: {fileID: 0}
  m_PrefabAsset: {fileID: 0}
  m_GameObject: {fileID: 0}
  m_Enabled: 1
  m_EditorHideFlags: 0
  m_Script: {fileID: 11500000, guid: 4eb370e56923dbb48ab252103ce3ff91, type: 3}
  m_Name: Necklace
  m_EditorClassIdentifier: 
  outfitName: Necklace
  outfitType: 5
  outfitModel: {fileID: 3853018879264639416, guid: 8cdb68f09c1fdc94db3e9e7b3b7b35e2, type: 3}
  hideParts: 
  requiredParts: 11000000
  ColorOptions: []
  tuckable: 0
  supportTuck: 0
  tag: Necklace
  bone: neck
  offset: {x: 0, y: -0.0349, z: 0.0496}
