%YAML 1.1
%TAG !u! tag:unity3d.com,2011:
--- !u!114 &11400000
MonoBehaviour:
  m_ObjectHideFlags: 0
  m_CorrespondingSourceObject: {fileID: 0}
  m_PrefabInstance: {fileID: 0}
  m_PrefabAsset: {fileID: 0}
  m_GameObject: {fileID: 0}
  m_Enabled: 1
  m_EditorHideFlags: 0
  m_Script: {fileID: 11500000, guid: e242f40c9db3de343a3dd6dedcf8a9b1, type: 3}
  m_Name: A1
  m_EditorClassIdentifier: 
  makeupName: A1
  color: {r: 1, g: 0.3443396, b: 0.3443396, a: 1}
  metallic: 0
  smoothness: 0
  part: 0
