%YAML 1.1
%TAG !u! tag:unity3d.com,2011:
--- !u!114 &11400000
MonoBehaviour:
  m_ObjectHideFlags: 0
  m_CorrespondingSourceObject: {fileID: 0}
  m_PrefabInstance: {fileID: 0}
  m_PrefabAsset: {fileID: 0}
  m_GameObject: {fileID: 0}
  m_Enabled: 1
  m_EditorHideFlags: 0
  m_Script: {fileID: 11500000, guid: e242f40c9db3de343a3dd6dedcf8a9b1, type: 3}
  m_Name: A10
  m_EditorClassIdentifier: 
  makeupName: A10
  color: {r: 0.9811321, g: 0.9811321, b: 0.9811321, a: 1}
  metallic: 0.836
  smoothness: 0.35
  part: 0
  index: 7
