%YAML 1.1
%TAG !u! tag:unity3d.com,2011:
--- !u!114 &11400000
MonoBehaviour:
  m_ObjectHideFlags: 0
  m_CorrespondingSourceObject: {fileID: 0}
  m_PrefabInstance: {fileID: 0}
  m_PrefabAsset: {fileID: 0}
  m_GameObject: {fileID: 0}
  m_Enabled: 1
  m_EditorHideFlags: 0
  m_Script: {fileID: 11500000, guid: e242f40c9db3de343a3dd6dedcf8a9b1, type: 3}
  m_Name: B8
  m_EditorClassIdentifier: 
  makeupName: B8
  color: {r: 0.7924528, g: 0.38875043, b: 0.33268064, a: 1}
  metallic: 0.106
  smoothness: 0.337
  part: 1
  index: 15
