%YAML 1.1
%TAG !u! tag:unity3d.com,2011:
--- !u!114 &11400000
MonoBehaviour:
  m_ObjectHideFlags: 0
  m_CorrespondingSourceObject: {fileID: 0}
  m_PrefabInstance: {fileID: 0}
  m_PrefabAsset: {fileID: 0}
  m_GameObject: {fileID: 0}
  m_Enabled: 1
  m_EditorHideFlags: 0
  m_Script: {fileID: 11500000, guid: e242f40c9db3de343a3dd6dedcf8a9b1, type: 3}
  m_Name: C10
  m_EditorClassIdentifier: 
  makeupName: C10
  color: {r: 0.878302, g: 0.3915094, b: 1, a: 1}
  metallic: 1
  smoothness: 0.204
  part: 2
  index: 27
