%YAML 1.1
%TAG !u! tag:unity3d.com,2011:
--- !u!162 &1
EditorUserSettings:
  m_ObjectHideFlags: 0
  serializedVersion: 4
  m_ConfigSettings:
    RecentlyUsedScenePath-0:
      value: 22424703114646680e0b0227036c6c111b07142f1f2b233e2867083debf42d
      flags: 0
    RecentlyUsedScenePath-1:
      value: 224247031146467718164c1722131f3505041d243821273c3e663936efef2777caf23be8e97a1b39340da1290a371526
      flags: 0
    RecentlyUsedScenePath-2:
      value: 22424703114646680e0b0227036c6b150503563f22213229
      flags: 0
    RecentlyUsedScenePath-3:
      value: 22424703114646680e0b0227036c6d1f191a4a6439262f2434
      flags: 0
    RecentlyUsedScenePath-4:
      value: 22424703114646680e0b0227036c6d1f191a496439262f2434
      flags: 0
    RecentlyUsedScenePath-5:
      value: 22424703114646680e0b0227036c6d1f191a2c2f3f3c68252320092a
      flags: 0
    RecentlyUsedScenePath-6:
      value: 22424703114646680e0b0227036c6d1f191a3a1f623d28393930
      flags: 0
    RecentlyUsedScenePath-7:
      value: 22424703114646680e0b0227036c6d1518131d38623d28393930
      flags: 0
    RecentlyUsedScenePath-8:
      value: 22424703114646680e0b0227036c6b18031a1a242d212a700a2c1336f0e12037f0a923e7ee2e26
      flags: 0
    RecentlyUsedScenePath-9:
      value: 22424703114646680e0b0227036c6d1f191a563f22213229
      flags: 0
    UnityEditor.ShaderGraph.Blackboard:
      value: 18135939215a0a5004000b0e15254b524c030a3f2964643d120d1230e9e93a3fd6e826abbd3c3e302a07a37e0901373ae01e0008f707250d171df81a53a5405d41895ac825e0100ec20313c0d91cddccd3d0c7efcca9bd88908fecb0f9cfddf1eff4e7a1b1eae482f0fda9e2e1928b86d888ed919f908797a7cf
      flags: 0
    UnityEditor.ShaderGraph.FloatingWindowsLayout2:
      value: 181344140043005e1a220d3b1f364b524c0c5a27130c293326201334cee5322ca0bd30e8eb293a707b0fd0180b3d0a36fc0d3d04e649500d1002ee0b5dbd1d2c27c00ad113cb1e10e41f1addc80993b98d9884a69ae6d8f0d1cda9e8fbfefaf9f9dea3fdb9ade882f0f7b0e1e380cafbf2c3adc18e9cd285a2908b82ec869c8395949c9483d68a8e97ddbd90bf
      flags: 0
    UnityEditor.ShaderGraph.InspectorWindow:
      value: 18135939215a0a5004000b0e15254b524c1119263f2d6a722016393ce1eb3d36e5d339f9a5602b2e2c07a37e0901373ae01e0008f707250d171df81a53a5485d41895ac825e0100ec20313c0d91cddccd3d0c7efcca9bd8f908fecb0f9cfddf1eff4e7a1b1eae482f0fcaee1e1928b86d888ed909e948797a7cf
      flags: 0
    UnityRemoteDevice:
      value: 2d5e5a03
      flags: 0
    vcSharedLogLevel:
      value: 0d5e400f0650
      flags: 0
  m_VCAutomaticAdd: 1
  m_VCDebugCom: 0
  m_VCDebugCmd: 0
  m_VCDebugOut: 0
  m_SemanticMergeMode: 2
  m_VCShowFailedCheckout: 1
  m_VCOverwriteFailedCheckoutAssets: 1
  m_VCProjectOverlayIcons: 1
  m_VCHierarchyOverlayIcons: 1
  m_VCOtherOverlayIcons: 1
  m_VCAllowAsyncUpdate: 1
